{
 "actions": [],
 "creation": "2021-01-15 15:32:58.146702",
 "doctype": "DocType",
 "editable_grid": 1,
 "engine": "InnoDB",
 "field_order": [
  "country",
  "type_of_document",
  "type_of_legalization",
  "case_name"
 ],
 "fields": [
  {
   "fieldname": "country",
   "fieldtype": "Link",
   "in_list_view": 1,
   "in_standard_filter": 1,
   "label": "Country",
   "options": "Country",
   "reqd": 1
  },
  {
   "fieldname": "type_of_document",
   "fieldtype": "Link",
   "in_list_view": 1,
   "in_standard_filter": 1,
   "label": "Type of Document",
   "options": "Type of document",
   "reqd": 1
  },
  {
   "fieldname": "type_of_legalization",
   "fieldtype": "Select",
   "in_list_view": 1,
   "in_standard_filter": 1,
   "label": "Type of Legalization",
   "options": "Legalization\nApostille\nExemption\nException",
   "reqd": 1
  },
  {
   "depends_on": "eval:doc.type_of_legalization==\"Exception\"",
   "fieldname": "case_name",
   "fieldtype": "Link",
   "label": "Exception Case",
   "mandatory_depends_on": "eval:doc.type_of_legalization==\"Exception\"",
   "options": "Legalization Exception"
  }
 ],
 "index_web_pages_for_search": 1,
 "links": [],
 "modified": "2021-03-10 09:57:56.346048",
 "modified_by": "Administrator",
 "module": "Popcorn",
 "name": "Legalization Rule",
 "owner": "Administrator",
 "permissions": [
  {
   "create": 1,
   "delete": 1,
   "email": 1,
   "export": 1,
   "print": 1,
   "read": 1,
   "report": 1,
   "role": "System Manager",
   "share": 1,
   "write": 1
  },
  {
   "read": 1,
   "role": "Davron Digital Customer"
  },
  {
   "read": 1,
   "role": "Davron Digital Supplier"
  }
 ],
 "sort_field": "modified",
 "sort_order": "DESC",
 "title_field": "type_of_document",
 "track_changes": 1
}