{
 "actions": [],
 "creation": "2020-11-24 11:24:35.689940",
 "doctype": "DocType",
 "editable_grid": 1,
 "engine": "InnoDB",
 "field_order": [
  "project",
  "step",
  "step_number",
  "start_date",
  "expected_start_date",
  "expected_end_date",
  "end_date",
  "column_break_2",
  "status",
  "supplier",
  "completed_by"
 ],
 "fields": [
  {
   "fieldname": "project",
   "fieldtype": "Link",
   "in_list_view": 1,
   "in_standard_filter": 1,
   "label": "Project",
   "options": "Project",
   "reqd": 1
  },
  {
   "fieldname": "step",
   "fieldtype": "Select",
   "in_list_view": 1,
   "in_standard_filter": 1,
   "label": "Step",
   "options": "Apostille\nLegalization\nTranslation\nNotarization\nConsulate\nFranco Arabic Chamber of Commerce",
   "reqd": 1
  },
  {
   "fieldname": "column_break_2",
   "fieldtype": "Column Break"
  },
  {
   "fieldname": "status",
   "fieldtype": "Select",
   "in_list_view": 1,
   "label": "Status",
   "options": "Not Started\nActive\nSuspended\nCompleted\nCancelled",
   "reqd": 1
  },
  {
   "fieldname": "step_number",
   "fieldtype": "Int",
   "in_list_view": 1,
   "label": "Step Number",
   "reqd": 1
  },
  {
   "fieldname": "supplier",
   "fieldtype": "Link",
   "label": "Supplier",
   "options": "Supplier"
  },
  {
   "fieldname": "start_date",
   "fieldtype": "Datetime",
   "label": "Start date"
  },
  {
   "fieldname": "expected_start_date",
   "fieldtype": "Date",
   "label": "Expected start date"
  },
  {
   "fieldname": "expected_end_date",
   "fieldtype": "Date",
   "label": "Expected end date"
  },
  {
   "fieldname": "end_date",
   "fieldtype": "Datetime",
   "label": "End date"
  },
  {
   "fieldname": "completed_by",
   "fieldtype": "Link",
   "label": "Completed by",
   "options": "User"
  }
 ],
 "hide_toolbar": 1,
 "index_web_pages_for_search": 1,
 "links": [
  {
   "group": "Actions",
   "link_doctype": "Task Action",
   "link_fieldname": "task"
  },
  {
   "group": "Files",
   "link_doctype": "File",
   "link_fieldname": "attached_to_name"
  }
 ],
 "modified": "2021-05-23 08:50:10.182346",
 "modified_by": "Administrator",
 "module": "Popcorn",
 "name": "Task",
 "owner": "Administrator",
 "permissions": [
  {
   "create": 1,
   "delete": 1,
   "email": 1,
   "export": 1,
   "print": 1,
   "read": 1,
   "report": 1,
   "role": "System Manager",
   "share": 1,
   "write": 1
  },
  {
   "create": 1,
   "delete": 1,
   "email": 1,
   "export": 1,
   "print": 1,
   "read": 1,
   "report": 1,
   "role": "Davron Digital Customer",
   "share": 1,
   "write": 1
  },
  {
   "create": 1,
   "delete": 1,
   "email": 1,
   "export": 1,
   "print": 1,
   "read": 1,
   "report": 1,
   "role": "Davron Digital Supplier",
   "share": 1,
   "write": 1
  }
 ],
 "route": "task",
 "sort_field": "modified",
 "sort_order": "DESC",
 "title_field": "step",
 "track_changes": 1,
 "track_seen": 1,
 "track_views": 1
}