{
 "content": null,
 "creation": "2020-12-08 14:36:06.676634",
 "docstatus": 0,
 "doctype": "Page",
 "idx": 0,
 "modified": "2020-12-10 07:44:39.674511",
 "modified_by": "Administrator",
 "module": "Popcorn",
 "name": "new-project",
 "owner": "Administrator",
 "page_name": "new-project",
 "roles": [
  {
   "role": "All"
  }
 ],
 "script": null,
 "standard": "Yes",
 "style": null,
 "system_page": 0,
 "title": "New Projet"
}