{
 "actions": [],
 "autoname": ".project_prefix.-.####",
 "creation": "2020-11-09 18:03:30.367245",
 "doctype": "DocType",
 "editable_grid": 1,
 "engine": "InnoDB",
 "field_order": [
  "name_and_status_section",
  "project_name",
  "status",
  "column_break_3",
  "customer",
  "project_prefix",
  "section_break_10",
  "start_date",
  "expected_end_date",
  "end_date",
  "country_of_destination",
  "issuing_country",
  "legalization_question_1",
  "legalization_question_2",
  "type_of_legalization",
  "type_of_notarization",
  "type_of_document_example",
  "type_of_document",
  "delivery_section",
  "send_documents",
  "certification_by_ccfa",
  "translate_doc",
  "specific_comments",
  "original_document",
  "original_signature",
  "amended_from"
 ],
 "fields": [
  {
   "fieldname": "project_name",
   "fieldtype": "Data",
   "hidden": 1,
   "label": "Project Name"
  },
  {
   "fieldname": "country_of_destination",
   "fieldtype": "Link",
   "label": "Country of destination",
   "options": "Country"
  },
  {
   "fieldname": "type_of_legalization",
   "fieldtype": "Select",
   "label": "Type of legalization",
   "options": "\nApostille\nLegalization\nExemption"
  },
  {
   "fieldname": "delivery_section",
   "fieldtype": "Column Break",
   "label": "Additional options"
  },
  {
   "default": "0",
   "fieldname": "certification_by_ccfa",
   "fieldtype": "Check",
   "label": "My document must be certified by CCFA"
  },
  {
   "fieldname": "specific_comments",
   "fieldtype": "Small Text",
   "label": "Specific comments"
  },
  {
   "default": "Draft",
   "fieldname": "status",
   "fieldtype": "Select",
   "in_list_view": 1,
   "label": "Status",
   "options": "Draft\nActive\nSuspended\nLate\nCancelled\nArchived\nCompleted",
   "read_only": 1
  },
  {
   "fieldname": "section_break_10",
   "fieldtype": "Section Break",
   "hidden": 1
  },
  {
   "default": "Gefi (CCI)",
   "fieldname": "type_of_notarization",
   "fieldtype": "Select",
   "label": "Type of notarization",
   "options": "Gefi (CCI)\nNotary\nNone"
  },
  {
   "fieldname": "expected_end_date",
   "fieldtype": "Date",
   "in_list_view": 1,
   "label": "Expected end date"
  },
  {
   "fieldname": "column_break_3",
   "fieldtype": "Column Break"
  },
  {
   "fieldname": "customer",
   "fieldtype": "Link",
   "label": "Customer",
   "options": "Customer",
   "read_only": 1
  },
  {
   "fieldname": "name_and_status_section",
   "fieldtype": "Section Break",
   "hidden": 1
  },
  {
   "fieldname": "project_prefix",
   "fieldtype": "Data",
   "label": "Project prefix"
  },
  {
   "default": "0",
   "depends_on": "eval:!doc.only_pdf",
   "fieldname": "send_documents",
   "fieldtype": "Check",
   "label": "I want my documents sent once legalized"
  },
  {
   "fieldname": "amended_from",
   "fieldtype": "Link",
   "label": "Amended From",
   "no_copy": 1,
   "options": "Project",
   "print_hide": 1,
   "read_only": 1
  },
  {
   "fieldname": "start_date",
   "fieldtype": "Date",
   "label": "Start date"
  },
  {
   "fieldname": "type_of_document",
   "fieldtype": "Link",
   "in_list_view": 1,
   "label": "Type of document",
   "options": "Type of document"
  },
  {
   "fieldname": "original_document",
   "fieldtype": "Link",
   "hidden": 1,
   "label": "Original signed document",
   "options": "File"
  },
  {
   "fieldname": "original_signature",
   "fieldtype": "Text",
   "label": "Original signature"
  },
  {
   "fieldname": "end_date",
   "fieldtype": "Date",
   "label": "End date"
  },
  {
   "default": "0",
   "fieldname": "translate_doc",
   "fieldtype": "Check",
   "label": "My document must be translated"
  },
  {
   "fieldname": "type_of_document_example",
   "fieldtype": "Link",
   "label": "Type of document example",
   "options": "Type of document example"
  },
  {
   "fieldname": "legalization_question_1",
   "fieldtype": "Select",
   "label": "Legalization Question 1",
   "options": "Yes\nNo"
  },
  {
   "fieldname": "legalization_question_2",
   "fieldtype": "Select",
   "label": "Legalization Question 2",
   "options": "Yes\nNo"
  },
  {
   "fieldname": "issuing_country",
   "fieldtype": "Link",
   "label": "Issuing Country",
   "options": "Country"
  }
 ],
 "index_web_pages_for_search": 1,
 "is_submittable": 1,
 "links": [],
 "modified": "2021-04-21 14:26:31.120053",
 "modified_by": "Administrator",
 "module": "Popcorn",
 "name": "Project",
 "owner": "Administrator",
 "permissions": [
  {
   "create": 1,
   "delete": 1,
   "email": 1,
   "export": 1,
   "print": 1,
   "read": 1,
   "report": 1,
   "role": "System Manager",
   "share": 1,
   "write": 1
  },
  {
   "create": 1,
   "email": 1,
   "export": 1,
   "print": 1,
   "read": 1,
   "report": 1,
   "role": "Davron Digital Customer",
   "share": 1,
   "submit": 1,
   "write": 1
  },
  {
   "read": 1,
   "role": "Davron Digital Supplier"
  }
 ],
 "route": "project",
 "sort_field": "modified",
 "sort_order": "DESC",
 "title_field": "project_name",
 "track_changes": 1,
 "track_seen": 1,
 "track_views": 1
}